<svg xmlns="http://www.w3.org/2000/svg" width="625.685" height="510.348" viewBox="0 0 625.685 510.348">
  <g id="Group_82" data-name="Group 82" transform="translate(-1110.315 -2407.378)">
    <line id="Line_14" data-name="Line 14" transform="translate(1233.623 2497.346)" fill="none" stroke="#707070" stroke-linecap="round" stroke-miterlimit="20" stroke-width="10"/>
    <line id="Line_17" data-name="Line 17" transform="translate(1421.968 2652.683)" fill="none" stroke="#707070" stroke-linecap="round" stroke-miterlimit="20" stroke-width="10"/>
    <rect id="Rectangle_8" data-name="Rectangle 8" width="4.089" height="163.918" transform="matrix(0.552, -0.834, 0.834, 0.552, 1296.921, 2525.027)" fill="#b2b2b2"/>
    <rect id="Rectangle_9" data-name="Rectangle 9" width="180.297" height="4.107" transform="matrix(0.836, -0.548, 0.548, 0.836, 1460.749, 2715.78)" fill="#b2b2b2"/>
    <path id="Path_364" data-name="Path 364" d="M1936.03,803.854l-81.969-56.873-89.2,56.6-88.289-57.348,2.233-3.447,86.085,55.911,89.28-56.649,84.212,58.426Z" transform="translate(-311.329 2015.533)" fill="#b2b2b2"/>
    <path id="Path_365" data-name="Path 365" d="M1697.31,685.494l-81.969-56.882-89.2,56.6-88.3-57.339,2.243-3.447,86.076,55.9,89.28-56.649,84.212,58.426Z" transform="translate(-304.37 2018.984)" fill="#b2b2b2"/>
    <path id="Path_366" data-name="Path 366" d="M1945.03,543.352v66.513l57.562-37.7-.388-66.377Z" transform="translate(-319.154 2022.42)" fill="#737373"/>
    <path id="Path_367" data-name="Path 367" d="M1943.365,543.44V609.6l-55.057-36.32-.388-66.814Z" transform="translate(-317.489 2022.4)" fill="#ed5dd9"/>
    <path id="Path_368" data-name="Path 368" d="M1942.609,542.468l56.164-37.319-54.63-36.028L1887.6,505.8Z" transform="translate(-317.48 2023.489)" fill="#f286e8"/>
    <path id="Path_369" data-name="Path 369" d="M1999.17,579.682V646.2l57.562-37.688-.388-66.387Z" transform="translate(-320.732 2021.361)" fill="#a8459f"/>
    <path id="Path_370" data-name="Path 370" d="M1997.505,579.78v66.154l-55.067-36.32-.388-66.8Z" transform="translate(-319.067 2021.341)" fill="#ed5dd9"/>
    <path id="Path_371" data-name="Path 371" d="M1998.279,578.808l56.164-37.32-54.62-36.038-56.542,36.679Z" transform="translate(-319.103 2022.43)" fill="#c2c2c2"/>
    <path id="Path_372" data-name="Path 372" d="M1770.87,567.182V633.7l57.562-37.688-.388-66.387Z" transform="translate(-314.077 2021.725)" fill="#a8459f"/>
    <path id="Path_373" data-name="Path 373" d="M1771.785,567.28v66.164l-55.057-36.329-.388-66.8Z" transform="translate(-312.488 2021.705)" fill="#b2b2b2"/>
    <path id="Path_374" data-name="Path 374" d="M1770.549,566.308l56.164-37.32-54.62-36.038-56.542,36.679Z" transform="translate(-312.465 2022.794)" fill="#f286e8"/>
    <path id="Path_375" data-name="Path 375" d="M1714.16,671.112v66.5l57.562-37.688-.388-66.377Z" transform="translate(-312.424 2018.696)" fill="#4e67c6"/>
    <path id="Path_376" data-name="Path 376" d="M1712.5,671.2v66.164l-55.067-36.329-.379-66.8Z" transform="translate(-310.76 2018.676)" fill="#b2b2b2"/>
    <path id="Path_377" data-name="Path 377" d="M1712.789,670.228l56.164-37.32-54.62-36.028-56.542,36.669Z" transform="translate(-310.781 2019.765)" fill="#c2c2c2"/>
    <path id="Path_378" data-name="Path 378" d="M1885.215,632.81v66.154l-55.067-36.32-.379-66.814Z" transform="translate(-315.794 2019.795)" fill="#939393"/>
    <path id="Path_379" data-name="Path 379" d="M1714.16,605.092v66.513l57.562-37.689-.388-66.387Z" transform="translate(-312.424 2020.62)" fill="#4e67c6"/>
    <path id="Path_380" data-name="Path 380" d="M1712.5,605.19v66.164l-55.067-36.329-.379-66.8Z" transform="translate(-310.76 2020.6)" fill="#5473ff"/>
    <path id="Path_381" data-name="Path 381" d="M1712.708,604.218l56.154-37.32-54.62-36.038L1657.7,567.539Z" transform="translate(-310.779 2021.689)" fill="#b2b2b2"/>
    <path id="Path_382" data-name="Path 382" d="M1714.16,538.2v66.513l57.562-37.7-.388-66.377Z" transform="translate(-312.424 2022.57)" fill="#993f3f"/>
    <path id="Path_383" data-name="Path 383" d="M1712.5,538.29v66.164l-55.067-36.32-.379-66.814Z" transform="translate(-310.76 2022.55)" fill="#d64d4d"/>
    <path id="Path_384" data-name="Path 384" d="M1712.789,537.318,1768.953,500l-54.62-36.028-56.542,36.679Z" transform="translate(-310.781 2023.639)" fill="#f25454"/>
    <path id="Path_385" data-name="Path 385" d="M1657.44,709.362v66.513l57.572-37.7-.4-66.377Z" transform="translate(-310.771 2017.581)" fill="#a8459f"/>
    <path id="Path_386" data-name="Path 386" d="M1655.775,709.45v66.164l-55.057-36.329-.388-66.8Z" transform="translate(-309.107 2017.561)" fill="#ed5dd9"/>
    <path id="Path_387" data-name="Path 387" d="M1655.159,708.478l56.164-37.32L1656.7,635.13l-56.552,36.679Z" transform="translate(-309.101 2018.65)" fill="#f286e8"/>
    <path id="Path_388" data-name="Path 388" d="M1827.59,670.812v66.513l57.562-37.688-.388-66.387Z" transform="translate(-315.731 2018.705)" fill="#993f3f"/>
    <path id="Path_389" data-name="Path 389" d="M1828.5,670.91v66.154l-55.057-36.32-.388-66.814Z" transform="translate(-314.141 2018.685)" fill="#d64d4d"/>
    <path id="Path_390" data-name="Path 390" d="M1827.509,669.938l56.164-37.32-54.62-36.038L1772.5,633.259Z" transform="translate(-314.125 2019.773)" fill="#f25454"/>
    <path id="Path_391" data-name="Path 391" d="M1999.17,513.312v66.513l57.562-37.688-.388-66.387Z" transform="translate(-320.732 2023.295)" fill="#4e67c6"/>
    <path id="Path_392" data-name="Path 392" d="M1997.505,513.41v66.164l-55.067-36.329-.388-66.8Z" transform="translate(-319.067 2023.275)" fill="#5473ff"/>
    <path id="Path_393" data-name="Path 393" d="M1998.548,512.438l56.154-37.32-54.62-36.038-56.542,36.679Z" transform="translate(-319.11 2024.364)" fill="#809bff"/>
    <path id="Path_394" data-name="Path 394" d="M1916.04,800.032v66.513l57.562-37.688-.388-66.387Z" transform="translate(-318.309 2014.938)" fill="#993f3f"/>
    <path id="Path_395" data-name="Path 395" d="M1916.345,799.72v66.164l-55.057-36.32-.388-66.814Z" transform="translate(-316.702 2014.93)" fill="#993f3f"/>
    <path id="Path_396" data-name="Path 396" d="M1915.409,798.748l56.164-37.32-54.62-36.028L1860.4,762.069Z" transform="translate(-316.687 2016.019)" fill="#f25454"/>
    <path id="Path_397" data-name="Path 397" d="M1858.72,837.362v66.513l57.562-37.689-.388-66.387Z" transform="translate(-316.638 2013.85)" fill="#993f3f"/>
    <path id="Path_398" data-name="Path 398" d="M1857.055,837.46v66.154L1802,867.294l-.388-66.8Z" transform="translate(-314.973 2013.83)" fill="#d64d4d"/>
    <path id="Path_399" data-name="Path 399" d="M1857.739,836.488l56.164-37.32-54.62-36.038-56.552,36.679Z" transform="translate(-315.006 2014.919)" fill="#f25454"/>
    <path id="Path_400" data-name="Path 400" d="M1582.25,455.562v66.513l57.572-37.688-.4-66.387Z" transform="translate(-308.579 2024.979)" fill="#4e67c6"/>
    <path id="Path_401" data-name="Path 401" d="M1580.585,455.66v66.154l-55.057-36.32-.388-66.8Z" transform="translate(-306.915 2024.959)" fill="#5473ff"/>
    <path id="Path_402" data-name="Path 402" d="M1580.479,454.688l56.164-37.32-54.62-36.038-56.552,36.679Z" transform="translate(-306.924 2026.048)" fill="#809bff"/>
    <path id="Path_403" data-name="Path 403" d="M1472.552,623.962v66.513l-57.562-37.7.388-66.377Z" transform="translate(-303.704 2020.07)" fill="#d64d4d"/>
    <path id="Path_404" data-name="Path 404" d="M1474.28,624.05v66.164l55.057-36.32.388-66.814Z" transform="translate(-305.432 2020.05)" fill="#993f3f"/>
    <path id="Path_405" data-name="Path 405" d="M1472.164,623.078,1416,585.758l54.62-36.028,56.542,36.679Z" transform="translate(-303.734 2021.139)" fill="#f25454"/>
    <rect id="Rectangle_11" data-name="Rectangle 11" width="180.297" height="4.107" transform="matrix(0.836, -0.548, 0.548, 0.836, 1459.782, 2715.788)" fill="#b2b2b2"/>
    <path id="Path_406" data-name="Path 406" d="M1935.03,803.854l-81.959-56.873-89.212,56.6-88.289-57.348,2.243-3.447,86.076,55.911,89.28-56.649,84.212,58.426Z" transform="translate(-311.299 2015.533)" fill="#b2b2b2"/>
    <path id="Path_407" data-name="Path 407" d="M1696.31,685.494l-81.969-56.882-89.2,56.6-88.3-57.339,2.243-3.447,86.085,55.9,89.28-56.649,84.2,58.426Z" transform="translate(-304.341 2018.984)" fill="#b2b2b2"/>
    <path id="Path_408" data-name="Path 408" d="M1944.03,543.352v66.513l57.571-37.7-.4-66.377Z" transform="translate(-319.125 2022.42)" fill="#737373"/>
    <path id="Path_409" data-name="Path 409" d="M1942.365,543.44V609.6l-55.057-36.32-.388-66.814Z" transform="translate(-317.46 2022.4)" fill="#ed5dd9"/>
    <path id="Path_410" data-name="Path 410" d="M1941.609,542.468l56.164-37.319-54.62-36.028L1886.6,505.8Z" transform="translate(-317.451 2023.489)" fill="#f286e8"/>
    <path id="Path_411" data-name="Path 411" d="M1998.17,579.682V646.2l57.562-37.688-.388-66.387Z" transform="translate(-320.703 2021.361)" fill="#a8459f"/>
    <path id="Path_412" data-name="Path 412" d="M1996.505,579.78v66.154l-55.067-36.32-.379-66.8Z" transform="translate(-319.038 2021.341)" fill="#ed5dd9"/>
    <path id="Path_413" data-name="Path 413" d="M1997.279,578.808l56.164-37.32-54.62-36.038-56.542,36.679Z" transform="translate(-319.074 2022.43)" fill="#c2c2c2"/>
    <path id="Path_414" data-name="Path 414" d="M1769.87,567.182V633.7l57.572-37.688-.4-66.387Z" transform="translate(-314.048 2021.725)" fill="#a8459f"/>
    <path id="Path_415" data-name="Path 415" d="M1770.785,567.28v66.164l-55.057-36.329-.388-66.8Z" transform="translate(-312.459 2021.705)" fill="#b2b2b2"/>
    <path id="Path_416" data-name="Path 416" d="M1769.549,566.308l56.164-37.32-54.62-36.038-56.542,36.679Z" transform="translate(-312.436 2022.794)" fill="#f286e8"/>
    <path id="Path_417" data-name="Path 417" d="M1713.16,671.112v66.5l57.562-37.688-.388-66.377Z" transform="translate(-312.395 2018.696)" fill="#4e67c6"/>
    <path id="Path_418" data-name="Path 418" d="M1711.5,671.2v66.164l-55.057-36.329-.388-66.8Z" transform="translate(-310.731 2018.676)" fill="#b2b2b2"/>
    <path id="Path_419" data-name="Path 419" d="M1711.8,670.228l56.154-37.32-54.62-36.028-56.542,36.669Z" transform="translate(-310.752 2019.765)" fill="#c2c2c2"/>
    <path id="Path_420" data-name="Path 420" d="M1884.215,632.81v66.154l-55.057-36.32-.388-66.814Z" transform="translate(-315.765 2019.795)" fill="#939393"/>
    <path id="Path_421" data-name="Path 421" d="M1713.16,605.092v66.513l57.562-37.689-.388-66.387Z" transform="translate(-312.395 2020.62)" fill="#4e67c6"/>
    <path id="Path_422" data-name="Path 422" d="M1711.5,605.19v66.164l-55.057-36.329-.388-66.8Z" transform="translate(-310.731 2020.6)" fill="#5473ff"/>
    <path id="Path_423" data-name="Path 423" d="M1711.708,604.218l56.154-37.32-54.62-36.038L1656.7,567.539Z" transform="translate(-310.75 2021.689)" fill="#b2b2b2"/>
    <path id="Path_424" data-name="Path 424" d="M1713.16,538.2v66.513l57.562-37.7-.388-66.377Z" transform="translate(-312.395 2022.57)" fill="#993f3f"/>
    <path id="Path_425" data-name="Path 425" d="M1711.5,538.29v66.164l-55.057-36.32-.388-66.814Z" transform="translate(-310.731 2022.55)" fill="#d64d4d"/>
    <path id="Path_426" data-name="Path 426" d="M1711.8,537.318,1767.953,500l-54.62-36.028-56.542,36.679Z" transform="translate(-310.752 2023.639)" fill="#f25454"/>
    <path id="Path_427" data-name="Path 427" d="M1656.45,709.362v66.513l57.562-37.7-.388-66.377Z" transform="translate(-310.742 2017.581)" fill="#a8459f"/>
    <path id="Path_428" data-name="Path 428" d="M1654.785,709.45v66.164l-55.067-36.329-.388-66.8Z" transform="translate(-309.077 2017.561)" fill="#ed5dd9"/>
    <path id="Path_429" data-name="Path 429" d="M1654.159,708.478l56.164-37.32L1655.7,635.13l-56.552,36.679Z" transform="translate(-309.072 2018.65)" fill="#f286e8"/>
    <path id="Path_430" data-name="Path 430" d="M1826.59,670.812v66.513l57.562-37.688-.388-66.387Z" transform="translate(-315.701 2018.705)" fill="#993f3f"/>
    <path id="Path_431" data-name="Path 431" d="M1827.505,670.91v66.154l-55.067-36.32-.388-66.814Z" transform="translate(-314.112 2018.685)" fill="#d64d4d"/>
    <path id="Path_432" data-name="Path 432" d="M1826.509,669.938l56.164-37.32-54.62-36.038-56.542,36.679Z" transform="translate(-314.096 2019.773)" fill="#f25454"/>
    <path id="Path_433" data-name="Path 433" d="M1998.17,513.312v66.513l57.562-37.688-.388-66.387Z" transform="translate(-320.703 2023.295)" fill="#4e67c6"/>
    <path id="Path_434" data-name="Path 434" d="M1996.505,513.41v66.164l-55.067-36.329-.379-66.8Z" transform="translate(-319.038 2023.275)" fill="#5473ff"/>
    <path id="Path_435" data-name="Path 435" d="M1997.548,512.438l56.164-37.32-54.63-36.038-56.542,36.679Z" transform="translate(-319.081 2024.364)" fill="#809bff"/>
    <path id="Path_436" data-name="Path 436" d="M1915.04,800.032v66.513l57.562-37.688-.388-66.387Z" transform="translate(-318.28 2014.938)" fill="#993f3f"/>
    <path id="Path_437" data-name="Path 437" d="M1915.355,799.72v66.164l-55.067-36.32-.388-66.814Z" transform="translate(-316.672 2014.93)" fill="#993f3f"/>
    <path id="Path_438" data-name="Path 438" d="M1914.409,798.748l56.164-37.32-54.62-36.028-56.542,36.669Z" transform="translate(-316.658 2016.019)" fill="#f25454"/>
    <path id="Path_439" data-name="Path 439" d="M1857.72,837.362v66.513l57.572-37.689-.4-66.387Z" transform="translate(-316.609 2013.85)" fill="#993f3f"/>
    <path id="Path_440" data-name="Path 440" d="M1856.055,837.46v66.154L1801,867.294l-.388-66.8Z" transform="translate(-314.944 2013.83)" fill="#d64d4d"/>
    <path id="Path_441" data-name="Path 441" d="M1856.739,836.488l56.164-37.32-54.62-36.038-56.542,36.679Z" transform="translate(-314.977 2014.919)" fill="#f25454"/>
    <path id="Path_442" data-name="Path 442" d="M1581.26,455.562v66.513l57.562-37.688L1638.434,418Z" transform="translate(-308.551 2024.979)" fill="#4e67c6"/>
    <path id="Path_443" data-name="Path 443" d="M1579.6,455.66v66.154l-55.067-36.32-.388-66.8Z" transform="translate(-306.886 2024.959)" fill="#5473ff"/>
    <path id="Path_444" data-name="Path 444" d="M1579.479,454.688l56.164-37.32-54.62-36.038-56.552,36.679Z" transform="translate(-306.895 2026.048)" fill="#809bff"/>
    <path id="Path_445" data-name="Path 445" d="M1471.552,623.962v66.513l-57.562-37.7.388-66.377Z" transform="translate(-303.675 2020.07)" fill="#d64d4d"/>
    <path id="Path_446" data-name="Path 446" d="M1473.28,624.05v66.164l55.067-36.32.379-66.814Z" transform="translate(-305.403 2020.05)" fill="#993f3f"/>
    <path id="Path_447" data-name="Path 447" d="M1471.164,623.078,1415,585.758l54.62-36.028,56.552,36.679Z" transform="translate(-303.704 2021.139)" fill="#f25454"/>
  </g>
</svg>
