<svg xmlns="http://www.w3.org/2000/svg" width="430.151" height="523.14" viewBox="0 0 430.151 523.14">
  <g id="Group_45" data-name="Group 45" transform="matrix(0.966, 0.259, -0.259, 0.966, -884.058, -1594.883)">
    <g id="Pad" transform="translate(1402.185 1276.646)">
      <path id="Path_611" data-name="Path 611" d="M2.807.943,297.125,0c6.249,0,12.284.32,12.284,6.6l-.857,407.53c0,6.282-5.178,6.272-11.428,6.272H11.484c-6.249,0-3.428,1.156-11.729-2.136L.169,11.375C.169,5.093-3.442.943,2.807.943Z" transform="translate(0.869 36.638)" fill="#a6a6a6"/>
      <rect id="Rectangle_37" data-name="Rectangle 37" width="144" height="46" rx="4" transform="translate(83.684 16.733)" fill="#a6a6a6"/>
      <rect id="Rectangle_38" data-name="Rectangle 38" width="74.358" height="23.687" rx="4" transform="translate(118.676)" fill="#a6a6a6"/>
    </g>
    <g id="Pad-2" data-name="Pad" transform="translate(1373.566 1251)">
      <path id="Path_611-2" data-name="Path 611" d="M2.807.943,297.125,0c6.249,0,12.284.32,12.284,6.6l-.857,407.53c0,6.282-5.178,6.272-11.428,6.272H11.484c-6.249,0-3.428,1.156-11.729-2.136L.169,11.375C.169,5.093-3.442.943,2.807.943Z" transform="translate(2.78 36.638)" fill="#f67272"/>
      <path id="Path_608" data-name="Path 608" d="M307.855,129.529a.977.977,0,0,1,.97.976V542.45a.977.977,0,0,1-.97.976H6.471a.977.977,0,0,1-.97-.976V130.5a.977.977,0,0,1,.97-.976H307.855m0-5.529H6.471A6.488,6.488,0,0,0,0,130.5V542.45a6.488,6.488,0,0,0,6.471,6.5H307.855a6.488,6.488,0,0,0,6.471-6.5V130.5A6.488,6.488,0,0,0,307.855,124Z" transform="translate(0 -89.473)" fill="#e85353"/>
      <path id="Path_609" data-name="Path 609" d="M322.587,439.587V121H46V507.011H255.595Z" transform="translate(-27.532 -72.421)" fill="#fff"/>
      <rect id="Rectangle_37-2" data-name="Rectangle 37" width="144" height="45" rx="4" transform="translate(85.319 17.38)" fill="#cecece"/>
      <rect id="Rectangle_38-2" data-name="Rectangle 38" width="74.358" height="23.687" rx="4" transform="translate(119.791)" fill="#cecece"/>
      <g id="Page-1" transform="translate(128.668 70.238)">
        <g id="erpnext-logo">
          <path id="Box" d="M376.692,216a8.5,8.5,0,0,1,8.515,8.515v39.176a8.5,8.5,0,0,1-8.515,8.515H337.515A8.5,8.5,0,0,1,329,263.692V224.515A8.5,8.5,0,0,1,337.515,216Z" transform="translate(-329 -216)" fill="#5a67d8"/>
          <path id="E" d="M372.949,251a2.463,2.463,0,0,0-.518.052,2.569,2.569,0,0,0-.482.148,2.252,2.252,0,0,0-.221.108,2.5,2.5,0,0,0-.4.273,2.553,2.553,0,0,0-.927,1.971v23a2.549,2.549,0,0,0,2.557,2.553h17.866a2.549,2.549,0,0,0,2.558-2.553v-.157a2.549,2.549,0,0,0-2.557-2.553H375.659v-6.379h11.27a2.549,2.549,0,0,0,2.553-2.557v-.157a2.545,2.545,0,0,0-2.553-2.553h-11.27v-5.93h15.156a2.549,2.549,0,0,0,2.557-2.553v-.157A2.549,2.549,0,0,0,390.815,251Z" transform="translate(-353.779 -236.948)" fill="#fff"/>
        </g>
      </g>
      <line id="Line_39" data-name="Line 39" x2="189" transform="translate(34.754 161.9)" fill="none" stroke="#707070" stroke-miterlimit="10" stroke-width="10"/>
      <line id="Line_40" data-name="Line 40" x2="189.498" transform="translate(34.929 218.966)" fill="none" stroke="#707070" stroke-miterlimit="10" stroke-width="10"/>
      <line id="Line_41" data-name="Line 41" x2="189.498" transform="translate(34.929 275.808)" fill="none" stroke="#707070" stroke-miterlimit="10" stroke-width="10"/>
      <line id="Line_42" data-name="Line 42" x2="189.498" transform="translate(34.929 332.65)" fill="none" stroke="#707070" stroke-miterlimit="10" stroke-width="10"/>
      <line id="Line_43" data-name="Line 43" x2="189" transform="translate(34.754 387.342)" fill="none" stroke="#707070" stroke-miterlimit="10" stroke-width="10"/>
      <rect id="Rectangle_39" data-name="Rectangle 39" width="27" height="25" rx="3" transform="translate(241.896 146.999)" fill="#76c47d"/>
      <rect id="Rectangle_40" data-name="Rectangle 40" width="27" height="25" rx="2" transform="translate(241.896 207.026)" fill="#ea6e6e"/>
      <rect id="Rectangle_41" data-name="Rectangle 41" width="27" height="26" rx="2" transform="translate(241.896 262.124)" fill="#ea6e6e"/>
      <rect id="Rectangle_42" data-name="Rectangle 42" width="27" height="26" rx="13" transform="translate(241.896 375.342)" fill="#ea6e6e"/>
      <rect id="Rectangle_43" data-name="Rectangle 43" width="27" height="27" rx="2" transform="translate(241.896 319.186)" fill="#76c47d"/>
      <path id="Path_610" data-name="Path 610" d="M580,997.653,648.653,929H580Z" transform="translate(-353.999 -563.063)" fill="#eaeaea"/>
    </g>
  </g>
</svg>
